"date","datetime","user","domain","usertype","dev","version_num","dashboard"
"2018-05-04","2018-05-04 14:20:32","local.developer@oliverwyman.com","oliverwyman.com","owac",,"v2018.05.01.03","C:/Users/casey.lilek/Desktop/R Stuff NEW/Clients/Dean Foods/owac-generic-wc-dashboard-8244519286c4/app"
"2018-05-04","2018-05-04 14:25:18","local.developer@oliverwyman.com","oliverwyman.com","owac",,"v2018.05.01.03","C:/Users/casey.lilek/Desktop/R Stuff NEW/Clients/Dean Foods/owac-generic-wc-dashboard-8244519286c4/app"
"2018-05-04","2018-05-04 15:12:40","local.developer@oliverwyman.com","oliverwyman.com","owac",,"v2018.05.01.03","C:/Users/casey.lilek/Desktop/R Stuff NEW/Clients/Dean Foods/owac-generic-wc-dashboard-8244519286c4/app"
"2018-05-04","2018-05-04 15:14:56","local.developer@oliverwyman.com","oliverwyman.com","owac",,"v2018.05.01.03","C:/Users/casey.lilek/Desktop/R Stuff NEW/Clients/Dean Foods/owac-generic-wc-dashboard-8244519286c4/app"
"2018-05-04","2018-05-04 15:20:39","local.developer@oliverwyman.com","oliverwyman.com","owac",,"v2018.05.01.03","C:/Users/casey.lilek/Desktop/R Stuff NEW/Clients/Dean Foods/owac-generic-wc-dashboard-8244519286c4/app"
"2018-05-04","2018-05-04 15:21:54","local.developer@oliverwyman.com","oliverwyman.com","owac",,"v2018.05.01.03","C:/Users/casey.lilek/Desktop/R Stuff NEW/Clients/Dean Foods/owac-generic-wc-dashboard-8244519286c4/app"
"2018-05-04","2018-05-04 16:21:55","local.developer@oliverwyman.com","oliverwyman.com","owac",,"v2018.05.01.03","C:/Users/casey.lilek/Desktop/R Stuff NEW/Clients/Dean Foods/owac-generic-wc-dashboard-8244519286c4/app"
"2018-05-04","2018-05-04 16:46:53","local.developer@oliverwyman.com","oliverwyman.com","owac",,"v2018.05.01.03","C:/Users/casey.lilek/Desktop/R Stuff NEW/Clients/Dean Foods/owac-generic-wc-dashboard-8244519286c4/app"
"2018-05-04","2018-05-04 16:51:18","local.developer@oliverwyman.com","oliverwyman.com","owac",,"v2018.05.01.03","C:/Users/casey.lilek/Desktop/R Stuff NEW/Clients/Dean Foods/owac-generic-wc-dashboard-8244519286c4/app"
"2018-05-04","2018-05-04 16:53:15","local.developer@oliverwyman.com","oliverwyman.com","owac",,"v2018.05.01.03","C:/Users/casey.lilek/Desktop/R Stuff NEW/Clients/Dean Foods/owac-generic-wc-dashboard-8244519286c4/app"
"2018-05-09","2018-05-09 16:44:56","local.developer@oliverwyman.com","oliverwyman.com","owac",,"v2018.05.01.03","C:/Users/casey.lilek/Desktop/R Stuff NEW/Clients/Dean Foods/owac-generic-wc-dashboard-8244519286c4/app"
"2018-05-10","2018-05-10 09:15:02","local.developer@oliverwyman.com","oliverwyman.com","owac",,"v2018.05.01.03","C:/Users/casey.lilek/Desktop/R Stuff NEW/Clients/Dean Foods/owac-generic-wc-dashboard-8244519286c4/app"
"2018-05-10","2018-05-10 09:43:00","local.developer@oliverwyman.com","oliverwyman.com","owac",,"v2018.05.01.03","C:/Users/casey.lilek/Desktop/R Stuff NEW/Clients/Dean Foods/owac-generic-wc-dashboard-8244519286c4/app"
"2018-05-10","2018-05-10 09:59:18","local.developer@oliverwyman.com","oliverwyman.com","owac",,"v2018.05.01.03","C:/Users/casey.lilek/Desktop/R Stuff NEW/Clients/Dean Foods/owac-generic-wc-dashboard-8244519286c4/app"
"2018-05-10","2018-05-10 10:17:43","local.developer@oliverwyman.com","oliverwyman.com","owac",,"v2018.05.01.03","C:/Users/casey.lilek/Desktop/R Stuff NEW/Clients/Dean Foods/owac-generic-wc-dashboard-8244519286c4/app"
"2018-05-10","2018-05-10 10:19:09","local.developer@oliverwyman.com","oliverwyman.com","owac",,"v2018.05.01.03","C:/Users/casey.lilek/Desktop/R Stuff NEW/Clients/Dean Foods/owac-generic-wc-dashboard-8244519286c4/app"
"2018-05-10","2018-05-10 10:24:07","local.developer@oliverwyman.com","oliverwyman.com","owac",,"v2018.05.01.03","C:/Users/casey.lilek/Desktop/R Stuff NEW/Clients/Dean Foods/owac-generic-wc-dashboard-8244519286c4/app"
"2018-05-10","2018-05-10 10:33:17","local.developer@oliverwyman.com","oliverwyman.com","owac",,"v2018.05.01.03","C:/Users/casey.lilek/Desktop/R Stuff NEW/Clients/Dean Foods/owac-generic-wc-dashboard-8244519286c4/app"
"2018-05-10","2018-05-10 10:58:07","local.developer@oliverwyman.com","oliverwyman.com","owac",,"v2018.05.01.03","C:/Users/casey.lilek/Desktop/R Stuff NEW/Clients/Dean Foods/owac-generic-wc-dashboard-8244519286c4/app"
"2018-05-10","2018-05-10 11:01:35","local.developer@oliverwyman.com","oliverwyman.com","owac",,"v2018.05.01.03","C:/Users/casey.lilek/Desktop/R Stuff NEW/Clients/Dean Foods/owac-generic-wc-dashboard-8244519286c4/app"
"2018-05-10","2018-05-10 11:06:48","local.developer@oliverwyman.com","oliverwyman.com","owac",,"v2018.05.01.03","C:/Users/casey.lilek/Desktop/R Stuff NEW/Clients/Dean Foods/owac-generic-wc-dashboard-8244519286c4/app"
"2018-05-15","2018-05-15 10:23:12","local.developer@oliverwyman.com","oliverwyman.com","owac",,"v2018.05.01.03","C:/Users/casey.lilek/Desktop/R Stuff NEW/Clients/Dean Foods/owac-generic-wc-dashboard-8244519286c4/app"
"2018-05-15","2018-05-15 11:24:12","local.developer@oliverwyman.com","oliverwyman.com","owac",,"v2018.05.01.03","C:/Users/casey.lilek/Desktop/R Stuff NEW/Clients/Dean Foods/owac-generic-wc-dashboard-8244519286c4/app"
"2018-05-15","2018-05-15 11:32:16","local.developer@oliverwyman.com","oliverwyman.com","owac",,"v2018.05.01.03","C:/Users/casey.lilek/Desktop/R Stuff NEW/Clients/Dean Foods/owac-generic-wc-dashboard-8244519286c4/app"
"2018-05-15","2018-05-15 12:20:37","local.developer@oliverwyman.com","oliverwyman.com","owac",,"v2018.05.01.03","C:/Users/casey.lilek/Desktop/R Stuff NEW/Clients/Dean Foods/owac-generic-wc-dashboard-8244519286c4/app"
"2018-05-15","2018-05-15 12:57:33","local.developer@oliverwyman.com","oliverwyman.com","owac",,"v2018.05.01.03","C:/Users/casey.lilek/Desktop/R Stuff NEW/Clients/Dean Foods/owac-generic-wc-dashboard-8244519286c4/app"
"2018-05-15","2018-05-15 13:04:57","local.developer@oliverwyman.com","oliverwyman.com","owac",,"v2018.05.01.03","C:/Users/casey.lilek/Desktop/R Stuff NEW/Clients/Dean Foods/owac-generic-wc-dashboard-8244519286c4/app"
"2018-05-15","2018-05-15 14:40:29","local.developer@oliverwyman.com","oliverwyman.com","owac",,"v2018.05.01.03","C:/Users/casey.lilek/Desktop/R Stuff NEW/Clients/Dean Foods/owac-generic-wc-dashboard-8244519286c4/app"
"2018-05-15","2018-05-15 15:55:33","casey.lilek@oliverwyman.com","oliverwyman.com","owac","dev","v2018.05.01.03","/data/shiny/actuarial/test/deanfoods"
"2018-05-15","2018-05-15 16:20:53","scott.rees@oliverwyman.com","oliverwyman.com","owac",,"v2018.05.01.03","/data/shiny/actuarial/test/deanfoods"
"2018-05-15","2018-05-15 17:11:16","scott.rees@oliverwyman.com","oliverwyman.com","owac",,"v2018.05.01.03","/data/shiny/actuarial/test/deanfoods"
"2018-05-15","2018-05-15 17:11:37","scott.rees@oliverwyman.com","oliverwyman.com","owac",,"v2018.05.01.03","/data/shiny/actuarial/test/deanfoods"
"2018-05-15","2018-05-15 17:13:26","scott.rees@oliverwyman.com","oliverwyman.com","owac",,"v2018.05.01.03","/data/shiny/actuarial/test/deanfoods"
"2018-05-15","2018-05-15 17:13:34","casey.lilek@oliverwyman.com","oliverwyman.com","owac","dev","v2018.05.01.03","/data/shiny/actuarial/test/deanfoods"
"2018-05-16","2018-05-16 16:26:41","scott.rees@oliverwyman.com","oliverwyman.com","owac",,"v2018.05.01.03","/data/shiny/actuarial/test/deanfoods"
"2018-05-16","2018-05-16 16:34:06","scott.rees@oliverwyman.com","oliverwyman.com","owac",,"v2018.05.01.03","/data/shiny/actuarial/test/deanfoods"
"2018-05-17","2018-05-17 10:56:27","scott.rees@oliverwyman.com","oliverwyman.com","owac",,"v2018.05.01.03","/data/shiny/actuarial/test/deanfoods"
"2018-05-17","2018-05-17 11:02:45","casey.lilek@oliverwyman.com","oliverwyman.com","owac","dev","v2018.05.01.03","/data/shiny/actuarial/test/deanfoods"
"2018-05-17","2018-05-17 13:05:34","scott.rees@oliverwyman.com","oliverwyman.com","owac",,"v2018.05.01.03","/data/shiny/actuarial/test/deanfoods"
"2018-05-17","2018-05-17 17:07:46","scott.rees@oliverwyman.com","oliverwyman.com","owac",,"v2018.05.01.03","/data/shiny/actuarial/test/deanfoods"
"2018-05-23","2018-05-23 17:15:06","casey.lilek@oliverwyman.com","oliverwyman.com","owac","dev","v2018.05.01.03","/data/shiny/actuarial/test/deanfoods"
"2018-05-23","2018-05-23 18:20:53","casey.lilek@oliverwyman.com","oliverwyman.com","owac","dev","v2018.05.01.03","/data/shiny/actuarial/test/deanfoods"
"2018-05-23","2018-05-23 18:22:01","casey.lilek@oliverwyman.com","oliverwyman.com","owac","dev","v2018.05.01.03","/data/shiny/actuarial/test/deanfoods"
"2018-05-23","2018-05-23 18:32:13","scott.rees@oliverwyman.com","oliverwyman.com","owac",,"v2018.05.01.03","/data/shiny/actuarial/test/deanfoods"
"2018-05-23","2018-05-23 18:33:44","scott.rees@oliverwyman.com","oliverwyman.com","owac",,"v2018.05.01.03","/data/shiny/actuarial/test/deanfoods"
"2018-05-23","2018-05-23 20:59:12","scott.rees@oliverwyman.com","oliverwyman.com","owac",,"v2018.05.01.03","/data/shiny/actuarial/test/deanfoods"
"2018-05-24","2018-05-24 14:15:15","scott.rees@oliverwyman.com","oliverwyman.com","owac",,"v2018.05.01.03","/data/shiny/actuarial/test/deanfoods"
"2018-05-25","2018-05-25 11:29:49","scott.rees@oliverwyman.com","oliverwyman.com","owac",,"v2018.05.01.03","/data/shiny/actuarial/test/deanfoods"
"2018-05-25","2018-05-25 11:32:50","casey.lilek@oliverwyman.com","oliverwyman.com","owac","dev","v2018.05.01.03","/data/shiny/actuarial/test/deanfoods"
"2018-05-25","2018-05-25 12:25:17","bryce.chamberlain@oliverwyman.com","oliverwyman.com","owac","dev","v2018.05.01.03","/data/shiny/actuarial/test/deanfoods"
"2018-05-25","2018-05-25 14:14:12","bryce.chamberlain@oliverwyman.com","oliverwyman.com","owac","dev","v2018.05.01.03","/data/shiny/actuarial/test/deanfoods"
"2018-05-25","2018-05-25 14:18:19","bryce.chamberlain@oliverwyman.com","oliverwyman.com","owac","dev","v2018.05.01.03","/data/shiny/actuarial/test/deanfoods"
"2018-05-25","2018-05-25 14:25:04","bryce.chamberlain@oliverwyman.com","oliverwyman.com","owac","dev","v2018.05.01.03","/data/shiny/actuarial/test/deanfoods"
"2018-05-25","2018-05-25 14:25:07","casey.lilek@oliverwyman.com","oliverwyman.com","owac","dev","v2018.05.01.03","/data/shiny/actuarial/test/deanfoods"
"2018-05-25","2018-05-25 13:29:52","local.developer@oliverwyman.com","oliverwyman.com","owac",,"v2018.05.01.03","C:/Users/casey.lilek/Desktop/R Stuff NEW/Clients/Dean Foods/owac-generic-wc-dashboard-8244519286c4/app"
"2018-05-25","2018-05-25 13:37:23","local.developer@oliverwyman.com","oliverwyman.com","owac",,"v2018.05.01.03","C:/Users/casey.lilek/Desktop/R Stuff NEW/Clients/Dean Foods/owac-generic-wc-dashboard-8244519286c4/app"
"2018-08-13","2018-08-13 13:33:02","local.developer@oliverwyman.com","oliverwyman.com","owac",,"v2018.05.01.03","C:/Users/Cal.Skwerski/Desktop/Dean Foods/owac-generic-wc-dashboard-8244519286c4/app"
"2018-08-13","2018-08-13 14:00:07","local.developer@oliverwyman.com","oliverwyman.com","owac",,"v2018.05.01.03","C:/Users/Cal.Skwerski/Desktop/Dean Foods/owac-generic-wc-dashboard-8244519286c4/app"
"2018-08-13","2018-08-13 14:00:41","local.developer@oliverwyman.com","oliverwyman.com","owac",,"v2018.05.01.03","C:/Users/Cal.Skwerski/Desktop/Dean Foods/owac-generic-wc-dashboard-8244519286c4/app"
"2018-08-24","2018-08-24 15:04:57","local.developer@oliverwyman.com","oliverwyman.com","owac",,"v2018.05.01.03","C:/Users/Cal.Skwerski/Desktop/Dean Foods/owac-generic-wc-dashboard-8244519286c4/app"
"2018-08-24","2018-08-24 15:06:10","local.developer@oliverwyman.com","oliverwyman.com","owac",,"v2018.05.01.03","C:/Users/Cal.Skwerski/Desktop/Dean Foods/owac-generic-wc-dashboard-8244519286c4/app"
"2018-08-24","2018-08-24 15:10:33","local.developer@oliverwyman.com","oliverwyman.com","owac",,"v2018.05.01.03","C:/Users/Cal.Skwerski/Desktop/Dean Foods/owac-generic-wc-dashboard-8244519286c4/app"
"2018-08-24","2018-08-24 15:21:57","local.developer@oliverwyman.com","oliverwyman.com","owac",,"v2018.05.01.03","C:/Users/Cal.Skwerski/Desktop/Dean Foods/owac-generic-wc-dashboard-8244519286c4/app"
"2018-08-24","2018-08-24 16:13:32","local.developer@oliverwyman.com","oliverwyman.com","owac",,"v2018.05.01.03","C:/Users/Cal.Skwerski/Desktop/Dean Foods/owac-generic-wc-dashboard-8244519286c4/app"
"2018-08-24","2018-08-24 16:17:11","local.developer@oliverwyman.com","oliverwyman.com","owac",,"v2018.05.01.03","C:/Users/Cal.Skwerski/Desktop/Dean Foods/owac-generic-wc-dashboard-8244519286c4/app"
"2018-08-24","2018-08-24 16:18:54","local.developer@oliverwyman.com","oliverwyman.com","owac",,"v2018.05.01.03","C:/Users/Cal.Skwerski/Desktop/Dean Foods/owac-generic-wc-dashboard-8244519286c4/app"
"2018-08-24","2018-08-24 16:24:05","local.developer@oliverwyman.com","oliverwyman.com","owac",,"v2018.05.01.03","C:/Users/Cal.Skwerski/Desktop/Dean Foods/owac-generic-wc-dashboard-8244519286c4/app"
"2018-08-24","2018-08-24 16:26:38","local.developer@oliverwyman.com","oliverwyman.com","owac",,"v2018.05.01.03","C:/Users/Cal.Skwerski/Desktop/Dean Foods/owac-generic-wc-dashboard-8244519286c4/app"
"2018-08-24","2018-08-24 16:36:18","local.developer@oliverwyman.com","oliverwyman.com","owac",,"v2018.05.01.03","C:/Users/Cal.Skwerski/Desktop/Dean Foods/owac-generic-wc-dashboard-8244519286c4/app"
"2018-08-24","2018-08-24 16:40:42","local.developer@oliverwyman.com","oliverwyman.com","owac",,"v2018.05.01.03","C:/Users/Cal.Skwerski/Desktop/Dean Foods/owac-generic-wc-dashboard-8244519286c4/app"
"2018-08-24","2018-08-24 16:42:14","local.developer@oliverwyman.com","oliverwyman.com","owac",,"v2018.05.01.03","C:/Users/Cal.Skwerski/Desktop/Dean Foods/owac-generic-wc-dashboard-8244519286c4/app"
"2018-08-24","2018-08-24 16:48:32","local.developer@oliverwyman.com","oliverwyman.com","owac",,"v2018.05.01.03","C:/Users/Cal.Skwerski/Desktop/Dean Foods/owac-generic-wc-dashboard-8244519286c4/app"
"2018-08-24","2018-08-24 16:51:10","local.developer@oliverwyman.com","oliverwyman.com","owac",,"v2018.05.01.03","C:/Users/Cal.Skwerski/Desktop/Dean Foods/owac-generic-wc-dashboard-8244519286c4/app"
"2018-08-24","2018-08-24 16:57:49","local.developer@oliverwyman.com","oliverwyman.com","owac",,"v2018.05.01.03","C:/Users/Cal.Skwerski/Desktop/Dean Foods/owac-generic-wc-dashboard-8244519286c4/app"
"2018-08-24","2018-08-24 16:59:12","local.developer@oliverwyman.com","oliverwyman.com","owac",,"v2018.05.01.03","C:/Users/Cal.Skwerski/Desktop/Dean Foods/owac-generic-wc-dashboard-8244519286c4/app"
"2018-08-24","2018-08-24 16:59:58","local.developer@oliverwyman.com","oliverwyman.com","owac",,"v2018.05.01.03","C:/Users/Cal.Skwerski/Desktop/Dean Foods/owac-generic-wc-dashboard-8244519286c4/app"
"2018-08-24","2018-08-24 17:03:19","local.developer@oliverwyman.com","oliverwyman.com","owac",,"v2018.05.01.03","C:/Users/Cal.Skwerski/Desktop/Dean Foods/owac-generic-wc-dashboard-8244519286c4/app"
"2018-08-24","2018-08-24 17:03:47","local.developer@oliverwyman.com","oliverwyman.com","owac",,"v2018.05.01.03","C:/Users/Cal.Skwerski/Desktop/Dean Foods/owac-generic-wc-dashboard-8244519286c4/app"
"2018-08-24","2018-08-24 17:05:19","local.developer@oliverwyman.com","oliverwyman.com","owac",,"v2018.05.01.03","C:/Users/Cal.Skwerski/Desktop/Dean Foods/owac-generic-wc-dashboard-8244519286c4/app"
"2018-08-24","2018-08-24 17:06:03","local.developer@oliverwyman.com","oliverwyman.com","owac",,"v2018.05.01.03","C:/Users/Cal.Skwerski/Desktop/Dean Foods/owac-generic-wc-dashboard-8244519286c4/app"
"2018-08-24","2018-08-24 17:09:31","local.developer@oliverwyman.com","oliverwyman.com","owac",,"v2018.05.01.03","C:/Users/Cal.Skwerski/Desktop/Dean Foods/owac-generic-wc-dashboard-8244519286c4/app"
"2018-08-24","2018-08-24 17:13:22","local.developer@oliverwyman.com","oliverwyman.com","owac",,"v2018.05.01.03","C:/Users/Cal.Skwerski/Desktop/Dean Foods/owac-generic-wc-dashboard-8244519286c4/app"
"2018-08-24","2018-08-24 17:16:36","local.developer@oliverwyman.com","oliverwyman.com","owac",,"v2018.05.01.03","C:/Users/Cal.Skwerski/Desktop/Dean Foods/owac-generic-wc-dashboard-8244519286c4/app"
"2018-08-24","2018-08-24 17:19:19","local.developer@oliverwyman.com","oliverwyman.com","owac",,"v2018.05.01.03","C:/Users/Cal.Skwerski/Desktop/Dean Foods/owac-generic-wc-dashboard-8244519286c4/app"
"2018-08-24","2018-08-24 17:19:48","local.developer@oliverwyman.com","oliverwyman.com","owac",,"v2018.05.01.03","C:/Users/Cal.Skwerski/Desktop/Dean Foods/owac-generic-wc-dashboard-8244519286c4/app"
"2018-08-24","2018-08-24 17:22:19","local.developer@oliverwyman.com","oliverwyman.com","owac",,"v2018.05.01.03","C:/Users/Cal.Skwerski/Desktop/Dean Foods/owac-generic-wc-dashboard-8244519286c4/app"
"2018-08-24","2018-08-24 17:24:52","local.developer@oliverwyman.com","oliverwyman.com","owac",,"v2018.05.01.03","C:/Users/Cal.Skwerski/Desktop/Dean Foods/owac-generic-wc-dashboard-8244519286c4/app"
"2018-08-24","2018-08-24 17:28:57","local.developer@oliverwyman.com","oliverwyman.com","owac",,"v2018.05.01.03","C:/Users/Cal.Skwerski/Desktop/Dean Foods/owac-generic-wc-dashboard-8244519286c4/app"
"2018-08-24","2018-08-24 17:30:16","local.developer@oliverwyman.com","oliverwyman.com","owac",,"v2018.05.01.03","C:/Users/Cal.Skwerski/Desktop/Dean Foods/owac-generic-wc-dashboard-8244519286c4/app"
"2018-08-24","2018-08-24 17:32:45","local.developer@oliverwyman.com","oliverwyman.com","owac",,"v2018.05.01.03","C:/Users/Cal.Skwerski/Desktop/Dean Foods/owac-generic-wc-dashboard-8244519286c4/app"
"2018-08-24","2018-08-24 17:33:15","local.developer@oliverwyman.com","oliverwyman.com","owac",,"v2018.05.01.03","C:/Users/Cal.Skwerski/Desktop/Dean Foods/owac-generic-wc-dashboard-8244519286c4/app"
"2018-08-24","2018-08-24 17:33:46","local.developer@oliverwyman.com","oliverwyman.com","owac",,"v2018.05.01.03","C:/Users/Cal.Skwerski/Desktop/Dean Foods/owac-generic-wc-dashboard-8244519286c4/app"
"2018-08-27","2018-08-27 14:53:23","local.developer@oliverwyman.com","oliverwyman.com","owac",,"v2018.05.01.03","C:/Users/Cal.Skwerski/Desktop/Dean Foods/20180630/app"
"2018-08-27","2018-08-27 16:36:43","local.developer@oliverwyman.com","oliverwyman.com","owac",,"v2018.05.01.03","C:/Users/Cal.Skwerski/Desktop/20180630/app"
"2018-08-27","2018-08-27 16:40:55","local.developer@oliverwyman.com","oliverwyman.com","owac",,"v2018.05.01.03","C:/Users/Cal.Skwerski/Desktop/20180630/app"
"2018-08-27","2018-08-27 16:43:45","local.developer@oliverwyman.com","oliverwyman.com","owac",,"v2018.05.01.03","C:/Users/Cal.Skwerski/Desktop/20180630/app"
"2018-08-27","2018-08-27 16:51:25","local.developer@oliverwyman.com","oliverwyman.com","owac",,"v2018.05.01.03","C:/Users/Cal.Skwerski/Desktop/20180630/app"
"2018-08-27","2018-08-27 16:56:41","local.developer@oliverwyman.com","oliverwyman.com","owac",,"v2018.05.01.03","C:/Users/Cal.Skwerski/Desktop/20180630/app"
"2018-08-27","2018-08-27 16:58:56","local.developer@oliverwyman.com","oliverwyman.com","owac",,"v2018.05.01.03","C:/Users/Cal.Skwerski/Desktop/20180630/app"
"2018-08-27","2018-08-27 17:23:30","local.developer@oliverwyman.com","oliverwyman.com","owac",,"v2018.05.01.03","C:/Users/Cal.Skwerski/Desktop/20180630/app"
"2018-08-27","2018-08-27 18:28:25","cal.skwerski@oliverwyman.com","oliverwyman.com","owac",,"v2018.05.01.03","/data/shiny/actuarial/lighthouse/deanfoods"
"2018-08-27","2018-08-27 18:29:34","cal.skwerski@oliverwyman.com","oliverwyman.com","owac",,"v2018.05.01.03","/data/shiny/actuarial/lighthouse/deanfoods"
"2018-08-27","2018-08-27 18:36:37","cal.skwerski@oliverwyman.com","oliverwyman.com","owac",,"v2018.05.01.03","/data/shiny/actuarial/lighthouse/deanfoods"
"2018-08-27","2018-08-27 18:37:59","cal.skwerski@oliverwyman.com","oliverwyman.com","owac",,"v2018.05.01.03","/data/shiny/actuarial/lighthouse/deanfoods"
"2018-08-27","2018-08-27 18:40:10","cal.skwerski@oliverwyman.com","oliverwyman.com","owac",,"v2018.05.01.03","/data/shiny/actuarial/lighthouse/deanfoods"
"2018-08-29","2018-08-29 14:39:29","scott.rees@oliverwyman.com","oliverwyman.com","owac",,"v2018.05.01.03","/data/shiny/actuarial/lighthouse/deanfoods"
"2018-08-29","2018-08-29 15:08:36","scott.rees@oliverwyman.com","oliverwyman.com","owac",,"v2018.05.01.03","/data/shiny/actuarial/lighthouse/deanfoods"
"2018-08-29","2018-08-29 18:07:20","cal.skwerski@oliverwyman.com","oliverwyman.com","owac",,"v2018.05.01.03","/data/shiny/actuarial/lighthouse/deanfoods"
"2018-08-29","2018-08-29 18:17:22","cal.skwerski@oliverwyman.com","oliverwyman.com","owac",,"v2018.05.01.03","/data/shiny/actuarial/lighthouse/deanfoods"
"2018-08-30","2018-08-30 13:48:56","cal.skwerski@oliverwyman.com","oliverwyman.com","owac",,"v2018.05.01.03","/data/shiny/actuarial/lighthouse/deanfoods"
"2018-08-30","2018-08-30 18:36:15","cal.skwerski@oliverwyman.com","oliverwyman.com","owac",,"v2018.05.01.03","/data/shiny/actuarial/lighthouse/deanfoods"
"2018-09-06","2018-09-06 09:34:52","local.developer@oliverwyman.com","oliverwyman.com","owac",,"v2018.05.01.03","C:/Users/Cal.Skwerski/Desktop/Dean Foods/Lighthouse/20180630"
"2018-09-06","2018-09-06 09:37:32","local.developer@oliverwyman.com","oliverwyman.com","owac",,"v2018.05.01.03","C:/Users/Cal.Skwerski/Desktop/Dean Foods/Lighthouse/20180630"
"2018-09-06","2018-09-06 09:40:42","local.developer@oliverwyman.com","oliverwyman.com","owac",,"v2018.05.01.03","C:/Users/Cal.Skwerski/Desktop/Dean Foods/Lighthouse/20180630"
"2018-09-06","2018-09-06 09:46:11","local.developer@oliverwyman.com","oliverwyman.com","owac",,"v2018.05.01.03","C:/Users/Cal.Skwerski/Desktop/Dean Foods/Lighthouse/20180630"
"2018-09-06","2018-09-06 09:56:30","local.developer@oliverwyman.com","oliverwyman.com","owac",,"v2018.05.01.03","C:/Users/Cal.Skwerski/Desktop/Dean Foods/Lighthouse/20180630"
"2018-09-06","2018-09-06 09:59:40","local.developer@oliverwyman.com","oliverwyman.com","owac",,"v2018.05.01.03","C:/Users/Cal.Skwerski/Desktop/Dean Foods/Lighthouse/20180630"
"2018-09-06","2018-09-06 10:00:18","local.developer@oliverwyman.com","oliverwyman.com","owac",,"v2018.05.01.03","C:/Users/Cal.Skwerski/Desktop/Dean Foods/Lighthouse/20180630"
"2018-09-06","2018-09-06 10:01:11","local.developer@oliverwyman.com","oliverwyman.com","owac",,"v2018.05.01.03","C:/Users/Cal.Skwerski/Desktop/Dean Foods/Lighthouse/20180630"
"2018-09-06","2018-09-06 10:04:25","local.developer@oliverwyman.com","oliverwyman.com","owac",,"v2018.05.01.03","C:/Users/Cal.Skwerski/Desktop/Dean Foods/Lighthouse/20180630"
"2018-09-06","2018-09-06 10:05:33","local.developer@oliverwyman.com","oliverwyman.com","owac",,"v2018.05.01.03","C:/Users/Cal.Skwerski/Desktop/Dean Foods/Lighthouse/20180630"
"2018-09-06","2018-09-06 10:06:08","local.developer@oliverwyman.com","oliverwyman.com","owac",,"v2018.05.01.03","C:/Users/Cal.Skwerski/Desktop/Dean Foods/Lighthouse/20180630"
"2018-09-06","2018-09-06 10:10:51","local.developer@oliverwyman.com","oliverwyman.com","owac",,"v2018.05.01.03","C:/Users/Cal.Skwerski/Desktop/Dean Foods/Lighthouse/20180630"
"2018-09-06","2018-09-06 10:15:07","local.developer@oliverwyman.com","oliverwyman.com","owac",,"v2018.05.01.03","C:/Users/Cal.Skwerski/Desktop/Dean Foods/Lighthouse/20180630"
"2018-09-06","2018-09-06 10:24:17","local.developer@oliverwyman.com","oliverwyman.com","owac",,"v2018.05.01.03","C:/Users/Cal.Skwerski/Desktop/Dean Foods/Lighthouse/20180630"
"2018-09-06","2018-09-06 10:31:25","local.developer@oliverwyman.com","oliverwyman.com","owac",,"v2018.05.01.03","C:/Users/Cal.Skwerski/Desktop/Dean Foods/Lighthouse/20180630"
"2018-09-06","2018-09-06 10:32:28","local.developer@oliverwyman.com","oliverwyman.com","owac",,"v2018.05.01.03","C:/Users/Cal.Skwerski/Desktop/Dean Foods/Lighthouse/20180630"
"2018-09-06","2018-09-06 10:35:07","local.developer@oliverwyman.com","oliverwyman.com","owac",,"v2018.05.01.03","C:/Users/Cal.Skwerski/Desktop/Dean Foods/Lighthouse/20180630"
"2018-09-06","2018-09-06 10:40:18","local.developer@oliverwyman.com","oliverwyman.com","owac",,"v2018.05.01.03","C:/Users/Cal.Skwerski/Desktop/Dean Foods/Lighthouse/20180630"
"2018-09-06","2018-09-06 10:40:55","local.developer@oliverwyman.com","oliverwyman.com","owac",,"v2018.05.01.03","C:/Users/Cal.Skwerski/Desktop/Dean Foods/Lighthouse/20180630"
"2018-09-06","2018-09-06 10:43:52","local.developer@oliverwyman.com","oliverwyman.com","owac",,"v2018.05.01.03","C:/Users/Cal.Skwerski/Desktop/Dean Foods/Lighthouse/20180630"
"2018-09-06","2018-09-06 10:48:21","local.developer@oliverwyman.com","oliverwyman.com","owac",,"v2018.05.01.03","C:/Users/Cal.Skwerski/Desktop/Dean Foods/Lighthouse/20180630"
"2018-09-06","2018-09-06 14:06:19","local.developer@oliverwyman.com","oliverwyman.com","owac",,"v2018.05.01.03","C:/Users/Cal.Skwerski/Desktop/Dean Foods/Lighthouse/20180630"
"2018-09-06","2018-09-06 14:06:29","local.developer@oliverwyman.com","oliverwyman.com","owac",,"v2018.05.01.03","C:/Users/Cal.Skwerski/Desktop/Dean Foods/Lighthouse/20180630"
"2018-09-06","2018-09-06 14:08:28","local.developer@oliverwyman.com","oliverwyman.com","owac",,"v2018.05.01.03","C:/Users/Cal.Skwerski/Desktop/Dean Foods/Lighthouse/20180630"
"2018-09-06","2018-09-06 14:09:25","local.developer@oliverwyman.com","oliverwyman.com","owac",,"v2018.05.01.03","C:/Users/Cal.Skwerski/Desktop/Dean Foods/Lighthouse/20180630"
"2018-09-06","2018-09-06 14:09:57","local.developer@oliverwyman.com","oliverwyman.com","owac",,"v2018.05.01.03","C:/Users/Cal.Skwerski/Desktop/Dean Foods/Lighthouse/20180630"
"2018-09-06","2018-09-06 14:13:28","local.developer@oliverwyman.com","oliverwyman.com","owac","","v2018.05.01.03","C:/Users/Cal.Skwerski/Desktop/Dean Foods/Lighthouse/20180630"
